Abia North,1
Abia Central,1
Abia South,1
Akwa-Ibom North-East,4
Akwa-Ibom North-West,4
Akwa-Ibom South,4
Adamawa North,2
Adamawa South,2
Adamawa Central,2
Anambra North,5
Anambra Central,5
Anambra South,5
Bauchi South,6
Bauchi Central,6
Bauchi North,6
Bayelsa East,7
Bayelsa Central,7
Bayelsa West,7
Benue NORTH  EAST,8
Benue North-West,8
Benue South,8
Borno North,9
Borno Central,9
Borno South,9
Cross River North,10
Cross River Central,10
Cross River South,10
Delta Central,11
Delta North,11
Delta South,11
Ebonyi North,12
Ebonyi Central,12
Ebonyi South,12
Edo Central,13
Edo North,13
Edo South,13
Ekiti North,14
Ekiti Central,14
Ekiti South,14
Enugu East,15
Enugu West,15
Enugu North,15
Gombe Central,16
Gombe South,16
Gombe North,16
Imo East,17
Imo West,17
Imo North,17
Jigawa South-West,18
Jigawa North-East,18
Jigawa North-West,18
Kaduna North,19
Kaduna Central,19
Kaduna South,19
Kano Central,20
Kano North,20
Kano South,20
Katsina North,21
Katsina South,21
Katsina Central,21
Kebbi North,22
Kebbi Central,22
Kebbi South,22
Kogi Central,23
Kogi East,23
Kogi West,23
Kwara North,24
Kwara Central,24
Kwara South,24
Lagos Central,25
Lagos East,25
Lagos West,25
Nasarawa North,26
Nasarawa West,26
Nasarawa South,26
Niger East,27
Niger North,27
Niger South,27
Ogun Central,28
Ogun East,28
Ogun West,28
Ondo North,29
Ondo Central,29
Ondo South,29
Osun Central,30
Osun East,30
Osun West,30
Oyo Central,31
Oyo North,31
Oyo South,31
Plateau South,32
Plateau Central,32
Plateau North,32
Cross River East,10
Cross River South-East,10
Cross River West,10
Sokoto East,34
Sokoto North,34
Sokoto South,34
Taraba South,35
Taraba Central,35
Taraba North,35
Yobe East,36
Yobe North,36
Yobe South,36
Zamfara North,37
Zamfara Central,37
Zamfara West,37
Abuja,3