Abia State,1
Adamawa State,1
Abuja,1
Akwa-Ibom State,1
Anambra State,1
Bauchi State,1
Bayelsa State,1
Benue State,1
Borno State,1
Cross River State,1
Delta State,1
Ebonyi State,1
Edo State,1
Ekiti State,1
Enugu State,1
Gombe State,1
Imo State,1
Jigawa State,1
Kaduna State,1
Kano State,1
Katsina State,1
Kebbi State,1
Kogi State,1
Kwara State,1
Lagos State,1
Nasarawa State,1
Niger State,1
Ogun State,1
Ondo State,1
Osun State,1
Oyo State,1
Plateau State,1
Rivers State,1
Sokoto State,1
Taraba State,1
Yobe State,1
Zamfara State,1